[
	{
		'primary_school_id' : 1,
		'school_name' : 'ADMIRALTY PRIMARY SCHOOL'
	},
	{
		'primary_school_id' : 2,
		'school_name' : 'AHMAD IBRAHIM PRIMARY SCHOOL'
	},
	{
		'primary_school_id' : 3,
		'school_name' : 'AI TONG SCHOOL'
	},
	{
		'primary_school_id' : 4,
		'school_name' : 'ANCHOR GREEN PRIMARY SCHOOL'
	},
	{
		'primary_school_id' : 5,
		'school_name' : 'ANDERSON PRIMARY SCHOOL'
	},
	{
		'primary_school_id' : 6,
		'school_name' : 'ANG MO KIO PRIMARY SCHOOL'
	},
	{
		'primary_school_id' : 7,
		'school_name' : 'ANGLO-CHINESE SCHOOL (JUNIOR)'
	},
	{
		'primary_school_id' : 8,
		'school_name' : 'ANGLO-CHINESE SCHOOL (PRIMARY)'
	},
	{
		'primary_school_id' : 9,
		'school_name' : 'BALESTIER HILL PRIMARY SCHOOL'
	},
	{
		'primary_school_id' : 10,
		'school_name' : 'BEACON PRIMARY SCHOOL'
	},
	{
		'primary_school_id' : 11,
		'school_name' : 'BEDOK GREEN PRIMARY SCHOOL'
	},
	{
		'primary_school_id' : 12,
		'school_name' : 'BEDOK WEST PRIMARY SCHOOL'
	},
	{
		'primary_school_id' : 13,
		'school_name' : 'BENDEMEER PRIMARY SCHOOL'
	},
	{
		'primary_school_id' : 14,
		'school_name' : 'BLANGAH RISE PRIMARY SCHOOL'
	},
	{
		'primary_school_id' : 15,
		'school_name' : 'BOON LAY GARDEN PRIMARY SCHOOL'
	},
	{
		'primary_school_id' : 16,
		'school_name' : 'BUKIT PANJANG PRIMARY SCHOOL'
	},
	{
		'primary_school_id' : 17,
		'school_name' : 'BUKIT TIMAH PRIMARY SCHOOL'
	},
	{
		'primary_school_id' : 18,
		'school_name' : 'BUKIT VIEW PRIMARY SCHOOL'
	},
	{
		'primary_school_id' : 19,
		'school_name' : 'CANBERRA PRIMARY SCHOOL'
	},
	{
		'primary_school_id' : 20,
		'school_name' : 'CANOSSA CONVENT PRIMARY SCHOOL'
	},
	{
		'primary_school_id' : 21,
		'school_name' : 'CANTONMENT PRIMARY SCHOOL'
	},
	{
		'primary_school_id' : 22,
		'school_name' : 'CASUARINA PRIMARY SCHOOL'
	},
	{
		'primary_school_id' : 23,
		'school_name' : 'CATHOLIC HIGH SCHOOL'
	},
	{
		'primary_school_id' : 24,
		'school_name' : 'CEDAR PRIMARY SCHOOL'
	},
	{
		'primary_school_id' : 25,
		'school_name' : 'CHANGKAT PRIMARY SCHOOL'
	},
	{
		'primary_school_id' : 26,
		'school_name' : 'CHIJ (KATONG) PRIMARY'
	},
	{
		'primary_school_id' : 27,
		'school_name' : 'CHIJ (KELLOCK)'
	},
	{
		'primary_school_id' : 28,
		'school_name' : 'CHIJ OUR LADY OF GOOD COUNSEL'
	},
	{
		'primary_school_id' : 29,
		'school_name' : 'CHIJ OUR LADY OF THE NATIVITY'
	},
	{
		'primary_school_id' : 30,
		'school_name' : 'CHIJ OUR LADY QUEEN OF PEACE'
	},
	{
		'primary_school_id' : 31,
		'school_name' : 'CHIJ PRIMARY (TOA PAYOH)'
	},
	{
		'primary_school_id' : 32,
		'school_name' : 'CHIJ ST. NICHOLAS GIRLS\' SCHOOL'
	},
	{
		'primary_school_id' : 33,
		'school_name' : 'CHONGFU PRIMARY SCHOOL'
	},
	{
		'primary_school_id' : 34,
		'school_name' : 'CHONGZHENG PRIMARY SCHOOL'
	},
	{
		'primary_school_id' : 35,
		'school_name' : 'CHUA CHU KANG PRIMARY SCHOOL'
	},
	{
		'primary_school_id' : 36,
		'school_name' : 'CLEMENTI PRIMARY SCHOOL'
	},
	{
		'primary_school_id' : 37,
		'school_name' : 'COMPASSVALE PRIMARY SCHOOL'
	},
	{
		'primary_school_id' : 38,
		'school_name' : 'CONCORD PRIMARY SCHOOL'
	},
	{
		'primary_school_id' : 39,
		'school_name' : 'CORAL PRIMARY SCHOOL'
	},
	{
		'primary_school_id' : 40,
		'school_name' : 'CORPORATION PRIMARY SCHOOL'
	},
	{
		'primary_school_id' : 41,
		'school_name' : 'DA QIAO PRIMARY SCHOOL'
	},
	{
		'primary_school_id' : 42,
		'school_name' : 'DAMAI PRIMARY SCHOOL'
	},
	{
		'primary_school_id' : 43,
		'school_name' : 'DAZHONG PRIMARY SCHOOL'
	},
	{
		'primary_school_id' : 44,
		'school_name' : 'DE LA SALLE SCHOOL'
	},
	{
		'primary_school_id' : 45,
		'school_name' : 'EAST COAST PRIMARY SCHOOL'
	},
	{
		'primary_school_id' : 46,
		'school_name' : 'EAST SPRING PRIMARY SCHOOL'
	},
	{
		'primary_school_id' : 47,
		'school_name' : 'EAST VIEW PRIMARY SCHOOL'
	},
	{
		'primary_school_id' : 48,
		'school_name' : 'EDGEFIELD PRIMARY SCHOOL'
	},
	{
		'primary_school_id' : 49,
		'school_name' : 'ELIAS PARK PRIMARY SCHOOL'
	},
	{
		'primary_school_id' : 50,
		'school_name' : 'ENDEAVOUR PRIMARY SCHOOL'
	},
	{
		'primary_school_id' : 51,
		'school_name' : 'EUNOS PRIMARY SCHOOL'
	},
	{
		'primary_school_id' : 52,
		'school_name' : 'EVERGREEN PRIMARY SCHOOL'
	},
	{
		'primary_school_id' : 53,
		'school_name' : 'FAIRFIELD METHODIST PRIMARY SCHOOL'
	},
	{
		'primary_school_id' : 54,
		'school_name' : 'FARRER PARK PRIMARY SCHOOL'
	},
	{
		'primary_school_id' : 55,
		'school_name' : 'FENGSHAN PRIMARY SCHOOL'
	},
	{
		'primary_school_id' : 56,
		'school_name' : 'FERNVALE PRIMARY SCHOOL'
	},
	{
		'primary_school_id' : 57,
		'school_name' : 'FIRST TOA PAYOH PRIMARY SCHOOL'
	},
	{
		'primary_school_id' : 58,
		'school_name' : 'FUCHUN PRIMARY SCHOOL'
	},
	{
		'primary_school_id' : 59,
		'school_name' : 'FUHUA PRIMARY SCHOOL'
	},
	{
		'primary_school_id' : 60,
		'school_name' : 'GAN ENG SENG PRIMARY SCHOOL'
	},
	{
		'primary_school_id' : 61,
		'school_name' : 'GEYLANG METHODIST SCHOOL (PRIMARY)'
	},
	{
		'primary_school_id' : 62,
		'school_name' : 'GONGSHANG PRIMARY SCHOOL'
	},
	{
		'primary_school_id' : 63,
		'school_name' : 'GREENDALE PRIMARY SCHOOL'
	},
	{
		'primary_school_id' : 64,
		'school_name' : 'GREENRIDGE PRIMARY SCHOOL'
	},
	{
		'primary_school_id' : 65,
		'school_name' : 'GREENWOOD PRIMARY SCHOOL'
	},
	{
		'primary_school_id' : 66,
		'school_name' : 'GRIFFITHS PRIMARY SCHOOL'
	},
	{
		'primary_school_id' : 67,
		'school_name' : 'GUANGYANG PRIMARY SCHOOL'
	},
	{
		'primary_school_id' : 68,
		'school_name' : 'HAIG GIRLS\' SCHOOL'
	},
	{
		'primary_school_id' : 69,
		'school_name' : 'HENRY PARK SCHOOL'
	},
	{
		'primary_school_id' : 70,
		'school_name' : 'HOLY INNOCENTS\' PRIMARY SCHOOL'
	},
	{
		'primary_school_id' : 71,
		'school_name' : 'HONG KAH PRIMARY SCHOOL'
	},
	{
		'primary_school_id' : 72,
		'school_name' : 'HONG WEN SCHOOL'
	},
	{
		'primary_school_id' : 73,
		'school_name' : 'HORIZON PRIMARY SCHOOL'
	},
	{
		'primary_school_id' : 74,
		'school_name' : 'HOUGANG PRIMARY SCHOOL'
	},
	{
		'primary_school_id' : 75,
		'school_name' : 'HUAMIN PRIMARY SCHOOL'
	},
	{
		'primary_school_id' : 76,
		'school_name' : 'INNOVA PRIMARY SCHOOL'
	},
	{
		'primary_school_id' : 77,
		'school_name' : 'JIEMIN PRIMARY SCHOOL'
	},
	{
		'primary_school_id' : 78,
		'school_name' : 'JING SHAN PRIMARY SCHOOL'
	},
	{
		'primary_school_id' : 79,
		'school_name' : 'JUNYUAN PRIMARY SCHOOL'
	},
	{
		'primary_school_id' : 80,
		'school_name' : 'JURONG PRIMARY SCHOOL'
	},
	{
		'primary_school_id' : 81,
		'school_name' : 'JURONG WEST PRIMARY SCHOOL'
	},
	{
		'primary_school_id' : 82,
		'school_name' : 'JUYING PRIMARY SCHOOL'
	},
	{
		'primary_school_id' : 83,
		'school_name' : 'KEMING PRIMARY SCHOOL'
	},
	{
		'primary_school_id' : 84,
		'school_name' : 'KHENG CHENG SCHOOL'
	},
	{
		'primary_school_id' : 85,
		'school_name' : 'KONG HWA SCHOOL'
	},
	{
		'primary_school_id' : 86,
		'school_name' : 'KRANJI PRIMARY SCHOOL'
	},
	{
		'primary_school_id' : 87,
		'school_name' : 'KUO CHUAN PRESBYTERIAN PRIMARY SCHOOL'
	},
	{
		'primary_school_id' : 88,
		'school_name' : 'LAKESIDE PRIMARY SCHOOL'
	},
	{
		'primary_school_id' : 89,
		'school_name' : 'LIANHUA PRIMARY SCHOOL'
	},
	{
		'primary_school_id' : 90,
		'school_name' : 'LOYANG PRIMARY SCHOOL'
	},
	{
		'primary_school_id' : 91,
		'school_name' : 'MACPHERSON PRIMARY SCHOOL'
	},
	{
		'primary_school_id' : 92,
		'school_name' : 'MAHA BODHI SCHOOL'
	},
	{
		'primary_school_id' : 93,
		'school_name' : 'MARIS STELLA HIGH SCHOOL'
	},
	{
		'primary_school_id' : 94,
		'school_name' : 'MARSILING PRIMARY SCHOOL'
	},
	{
		'primary_school_id' : 95,
		'school_name' : 'MARYMOUNT CONVENT SCHOOL'
	},
	{
		'primary_school_id' : 96,
		'school_name' : 'MAYFLOWER PRIMARY SCHOOL'
	},
	{
		'primary_school_id' : 97,
		'school_name' : 'MEE TOH SCHOOL'
	},
	{
		'primary_school_id' : 98,
		'school_name' : 'MERIDIAN PRIMARY SCHOOL'
	},
	{
		'primary_school_id' : 99,
		'school_name' : 'MERIDIAN PRIMARY SCHOOL'
	},
	{
		'primary_school_id' : 100,
		'school_name' : 'METHODIST GIRLS\' SCHOOL (PRIMARY)'
	},
	{
		'primary_school_id' : 101,
		'school_name' : 'MONTFORT JUNIOR SCHOOL'
	},
	{
		'primary_school_id' : 102,
		'school_name' : 'NAN CHIAU PRIMARY SCHOOL'
	},
	{
		'primary_school_id' : 103,
		'school_name' : 'NAN HUA PRIMARY SCHOOL'
	},
	{
		'primary_school_id' : 104,
		'school_name' : 'NANYANG PRIMARY SCHOOL'
	},
	{
		'primary_school_id' : 105,
		'school_name' : 'NAVAL BASE PRIMARY SCHOOL'
	},
	{
		'primary_school_id' : 106,
		'school_name' : 'NEW TOWN PRIMARY SCHOOL'
	},
	{
		'primary_school_id' : 107,
		'school_name' : 'NGEE ANN PRIMARY SCHOOL'
	},
	{
		'primary_school_id' : 108,
		'school_name' : 'NORTH SPRING PRIMARY SCHOOL'
	},
	{
		'primary_school_id' : 109,
		'school_name' : 'NORTH VIEW PRIMARY SCHOOL'
	},
	{
		'primary_school_id' : 110,
		'school_name' : 'NORTH VISTA PRIMARY SCHOOL'
	},
	{
		'primary_school_id' : 111,
		'school_name' : 'NORTHLAND PRIMARY SCHOOL'
	},
	{
		'primary_school_id' : 112,
		'school_name' : 'OPERA ESTATE PRIMARY SCHOOL'
	},
	{
		'primary_school_id' : 113,
		'school_name' : 'PARK VIEW PRIMARY SCHOOL'
	},
	{
		'primary_school_id' : 114,
		'school_name' : 'PASIR RIS PRIMARY SCHOOL'
	},
	{
		'primary_school_id' : 115,
		'school_name' : 'PAYA LEBAR METHODIST GIRLS\' SCHOOL (PRIMARY)'
	},
	{
		'primary_school_id' : 116,
		'school_name' : 'PEI CHUN PUBLIC SCHOOL'
	},
	{
		'primary_school_id' : 117,
		'school_name' : 'PEI HWA PRESBYTERIAN PRIMARY SCHOOL'
	},
	{
		'primary_school_id' : 118,
		'school_name' : 'PEI TONG PRIMARY SCHOOL'
	},
	{
		'primary_school_id' : 119,
		'school_name' : 'PEIYING PRIMARY SCHOOL'
	},
	{
		'primary_school_id' : 120,
		'school_name' : 'PIONEER PRIMARY SCHOOL'
	},
	{
		'primary_school_id' : 121,
		'school_name' : 'POI CHING SCHOOL'
	},
	{
		'primary_school_id' : 122,
		'school_name' : 'PRINCESS ELIZABETH PRIMARY SCHOOL'
	},
	{
		'primary_school_id' : 123,
		'school_name' : 'PUNGGOL PRIMARY SCHOOL'
	},
	{
		'primary_school_id' : 124,
		'school_name' : 'QIAONAN PRIMARY SCHOOL'
	},
	{
		'primary_school_id' : 125,
		'school_name' : 'QIFA PRIMARY SCHOOL'
	},
	{
		'primary_school_id' : 126,
		'school_name' : 'QIHUA PRIMARY SCHOOL'
	},
	{
		'primary_school_id' : 127,
		'school_name' : 'QUEENSTOWN PRIMARY SCHOOL'
	},
	{
		'primary_school_id' : 128,
		'school_name' : 'RADIN MAS PRIMARY SCHOOL'
	},
	{
		'primary_school_id' : 129,
		'school_name' : 'RAFFLES GIRLS\' PRIMARY SCHOOL'
	},
	{
		'primary_school_id' : 130,
		'school_name' : 'RED SWASTIKA SCHOOL'
	},
	{
		'primary_school_id' : 131,
		'school_name' : 'RIVER VALLEY PRIMARY SCHOOL'
	},
	{
		'primary_school_id' : 132,
		'school_name' : 'RIVERVALE PRIMARY SCHOOL'
	},
	{
		'primary_school_id' : 133,
		'school_name' : 'ROSYTH SCHOOL'
	},
	{
		'primary_school_id' : 134,
		'school_name' : 'RULANG PRIMARY SCHOOL'
	},
	{
		'primary_school_id' : 135,
		'school_name' : 'SEMBAWANG PRIMARY SCHOOL'
	},
	{
		'primary_school_id' : 136,
		'school_name' : 'SENG KANG PRIMARY SCHOOL'
	},
	{
		'primary_school_id' : 137,
		'school_name' : 'SHUQUN PRIMARY SCHOOL'
	},
	{
		'primary_school_id' : 138,
		'school_name' : 'SI LING PRIMARY SCHOOL'
	},
	{
		'primary_school_id' : 139,
		'school_name' : 'SINGAPORE CHINESE GIRLS\' PRIMARY SCHOOL'
	},
	{
		'primary_school_id' : 140,
		'school_name' : 'SOUTH VIEW PRIMARY SCHOOL'
	},
	{
		'primary_school_id' : 141,
		'school_name' : 'ST. ANDREW\'S JUNIOR SCHOOL'
	},
	{
		'primary_school_id' : 142,
		'school_name' : 'ST. ANTHONY\'S CANOSSIAN PRIMARY SCHOOL'
	},
	{
		'primary_school_id' : 143,
		'school_name' : 'ST. ANTHONY\'S PRIMARY SCHOOL'
	},
	{
		'primary_school_id' : 144,
		'school_name' : 'ST. GABRIEL\'S PRIMARY SCHOOL'
	},
	{
		'primary_school_id' : 145,
		'school_name' : 'ST. HILDA\'S PRIMARY SCHOOL'
	},
	{
		'primary_school_id' : 146,
		'school_name' : 'ST. JOSEPH\'S INSTITUTION JUNIOR'
	},
	{
		'primary_school_id' : 147,
		'school_name' : 'ST. MARGARET\'S PRIMARY SCHOOL'
	},
	{
		'primary_school_id' : 148,
		'school_name' : 'ST. STEPHEN\'S SCHOOL'
	},
	{
		'primary_school_id' : 149,
		'school_name' : 'STAMFORD PRIMARY SCHOOL'
	},
	{
		'primary_school_id' : 150,
		'school_name' : 'TAMPINES NORTH PRIMARY SCHOOL'
	},
	{
		'primary_school_id' : 151,
		'school_name' : 'TAMPINES PRIMARY SCHOOL'
	},
	{
		'primary_school_id' : 152,
		'school_name' : 'TANJONG KATONG PRIMARY SCHOOL'
	},
	{
		'primary_school_id' : 153,
		'school_name' : 'TAO NAN SCHOOL'
	},
	{
		'primary_school_id' : 154,
		'school_name' : 'TECK GHEE PRIMARY SCHOOL'
	},
	{
		'primary_school_id' : 155,
		'school_name' : 'TECK WHYE PRIMARY SCHOOL'
	},
	{
		'primary_school_id' : 156,
		'school_name' : 'TELOK KURAU PRIMARY SCHOOL'
	},
	{
		'primary_school_id' : 157,
		'school_name' : 'TEMASEK PRIMARY SCHOOL'
	},
	{
		'primary_school_id' : 158,
		'school_name' : 'TOWNSVILLE PRIMARY SCHOOL'
	},
	{
		'primary_school_id' : 159,
		'school_name' : 'UNITY PRIMARY SCHOOL'
	},
	{
		'primary_school_id' : 160,
		'school_name' : 'WELLINGTON PRIMARY SCHOOL'
	},
	{
		'primary_school_id' : 161,
		'school_name' : 'WEST GROVE PRIMARY SCHOOL'
	},
	{
		'primary_school_id' : 162,
		'school_name' : 'WEST VIEW PRIMARY SCHOOL'
	},
	{
		'primary_school_id' : 163,
		'school_name' : 'WHITE SANDS PRIMARY SCHOOL'
	},
	{
		'primary_school_id' : 164,
		'school_name' : 'WOODGROVE PRIMARY SCHOOL'
	},
	{
		'primary_school_id' : 165,
		'school_name' : 'WOODLANDS PRIMARY SCHOOL'
	},
	{
		'primary_school_id' : 166,
		'school_name' : 'WOODLANDS RING PRIMARY SCHOOL'
	},
	{
		'primary_school_id' : 167,
		'school_name' : 'XINGHUA PRIMARY SCHOOL'
	},
	{
		'primary_school_id' : 168,
		'school_name' : 'XINGNAN PRIMARY SCHOOL'
	},
	{
		'primary_school_id' : 169,
		'school_name' : 'XINMIN PRIMARY SCHOOL'
	},
	{
		'primary_school_id' : 170,
		'school_name' : 'XISHAN PRIMARY SCHOOL'
	},
	{
		'primary_school_id' : 171,
		'school_name' : 'YANGZHENG PRIMARY SCHOOL'
	},
	{
		'primary_school_id' : 172,
		'school_name' : 'YEW TEE PRIMARY SCHOOL'
	},
	{
		'primary_school_id' : 173,
		'school_name' : 'YIO CHU KANG PRIMARY SCHOOL'
	},
	{
		'primary_school_id' : 174,
		'school_name' : 'YISHUN PRIMARY SCHOOL'
	},
	{
		'primary_school_id' : 175,
		'school_name' : 'YU NENG PRIMARY SCHOOL'
	},
	{
		'primary_school_id' : 176,
		'school_name' : 'YUHUA PRIMARY SCHOOL'
	},
	{
		'primary_school_id' : 177,
		'school_name' : 'YUMIN PRIMARY SCHOOL'
	},
	{
		'primary_school_id' : 178,
		'school_name' : 'ZHANGDE PRIMARY SCHOOL'
	},
	{
		'primary_school_id' : 179,
		'school_name' : 'ZHENGHUA PRIMARY SCHOOL'
	},
	{
		'primary_school_id' : 180,
		'school_name' : 'ZHONGHUA PRIMARY SCHOOL'
	}
]
