[
	{
		"university_id" : 1,
		"school_name" : "NATIONAL UNIVERSITY OF SINGAPORE"
	},
	{
		"university_id" : 2,
		"school_name" : "NANYANG TECHNOLOGICAL UNIVERSITY"
	},
	{
		"university_id" : 3,
		"school_name" : "SINGAPORE MANAGEMENT UNIVERSITY"
	},
	{
		"university_id" : 4,
		"school_name" : "SINGAPORE INSTITUTE OF MANAGEMENT"
	}
]
