1,Malay Language
2,English Language
3,Mathematics
4,Science
5,History
6,Islamic Education
7,Moral Education
8,Civics and Citizenship Education
9,Physical Education
10,Health Education
11,Chinese Language
12,Tamil Language
13,Arabic Language
14,Iban Language
15,Kadazandusun Language
16,Japanese Language
17,French Language
18,German Language
19,Malay Literature
20,English Literature
21,English for Science and Technology
22,Visual Arts Education
23,Music Education
24,Geography
25,Basic Economics
26,Additional Mathematics
27,Additional Science
28,Physics
29,Chemistry
30,Biology
31,Information and Communication Technology
32,Invention
33,Sports Science
34,Domestic Construction
35,Furniture Making
36,Signage Design
37,Domestic Plumbing
38,Domestic Wiring
39,Arc and Gas Welding
40,Automobile Servicing
41,Motorcycle Servicing
42,Servicing of Refrigeration and Air-Conditioning Equipment
43,Servicing of Domestic Electrical Appliances
44,Clothing Design and Sewing
45,Catering and Service
46,Food Processing
47,Facial Care and Hairdressing
48,Basic Interior Design
49,Early Childhood Care and Education
50,Basic Gerontology and Geriatric Services
51,Landscape and Nursery
52,Aquaculture and Recreational Animals
53,Food Cultivation
54,Computer Graphics
55,Multimedia Production
56,Mechanical Engineering Studies
57,Civil Engineering Studies
58,Electrical & Electronic Engineering Studies
59,Engineering Drawing
60,Agro-technology Studies
61,Agricultural Science
62,Entrepreneurial Studies
63,Commerce
64,Principles of Accounting
65,Clothing Studies
66,Food Management
67,Home Economics
68,Engineering Technology
69,Fundamentals of Programming
70,Program and Development Tools
71,Dress Pattern Making
72,Dressmaking
73,Bread & Yeast Food
74,Patisserie
75,Preparation of Western & Eastern Cuisines
76,Preparation of Food & Beverage
77,Make-up
78,Hairdressing
79,Child Development Studies
80,Early Childhood Services
81,Building Materials
82,Building Technology
83,Electrical and Electronic Principles
84,Electrical and Electronic Applications
85,Computerised Machining
86,Mechanical Workshop Practice
87,Cooling
88,Air Conditioning
89,Automotive
90,Electrical and Diesel Automotive
91,Arc Welding
92,Gas Welding
93,Agricultural Mechanisation
94,Ornamental Horticulture & Landscape
95,Crop Production
96,Processing of Agricultural Products
97,Livestock Production
98,Business Office Technology
99,Computer Application in Business
100,Business Accounting
101,Applied Science
102,Animation and Publication Design
103,Creative Multimedia Publishing
104,Computer Support System
105,Network Support System
106,Basic Tourism Skills
107,Tourism and Recreation
108,Advanced Arabic
109,Islamic Concepts
110,Quran and Sunnah Education
111,Islamic Law Education